module gitlab.com/ariews/belajar/scribble

go 1.15

require (
	github.com/jcelliott/lumber v0.0.0-20160324203708-dd349441af25 // indirect
	github.com/nanobox-io/golang-scribble v0.0.0-20190309225732-aa3e7c118975
)
